{
  "routes": [

    {"/sample":
      {
        "OPTIONS" : {
          "response" : {
            "headers" : [
            ],
            "status" : 200
          }
        }
      }
    },

    {"/sample":
      {
        "GET" : {
          "response" : {
            "headers" : [
            ],
            "status" : 400,
            "body" : {
              "error" : "Ongeldige gebruikersnaam en of wachtwoord"
            }
          }
        }
      }
    }

  ]
}
